{
	"id": "fefbbb19-4ee0-493f-aa17-1a8f397e41fd",
	"name": "employee-management-api",
	"values": [
		{
			"key": "host",
			"value": "http://localhost",
			"type": "default",
			"enabled": true
		},
		{
			"key": "port",
			"value": "5000",
			"type": "default",
			"enabled": true
		},
		{
			"key": "accessToken",
			"value": "",
			"type": "default",
			"enabled": true
		}
	],
	"_postman_variable_scope": "environment",
	"_postman_exported_at": "2024-06-07T19:15:53.550Z",
	"_postman_exported_using": "Postman/11.0.12"
}