{
	"info": {
		"_postman_id": "91e8c245-a9db-4c99-a0cc-60f9e2dc88e1",
		"name": "employee-management-api",
		"schema": "https://schema.getpostman.com/json/collection/v2.1.0/collection.json",
		"_exporter_id": "7899277"
	},
	"item": [
		{
			"name": "authentication",
			"item": [
				{
					"name": "Register admin user",
					"request": {
						"method": "POST",
						"header": [],
						"body": {
							"mode": "raw",
							"raw": "{\n    \"username\": \"admin\",\n    \"password\": \"password\"\n}",
							"options": {
								"raw": {
									"language": "json"
								}
							}
						},
						"url": {
							"raw": "{{host}}:{{port}}/api/auth/register-admin-user",
							"host": [
								"{{host}}"
							],
							"port": "{{port}}",
							"path": [
								"api",
								"auth",
								"register-admin-user"
							]
						}
					},
					"response": []
				},
				{
					"name": "Login admin user",
					"request": {
						"method": "POST",
						"header": [],
						"body": {
							"mode": "raw",
							"raw": "{\n    \"username\": \"admin\",\n    \"password\": \"password\"\n}",
							"options": {
								"raw": {
									"language": "json"
								}
							}
						},
						"url": {
							"raw": "{{host}}:{{port}}/api/auth/login-admin-user",
							"host": [
								"{{host}}"
							],
							"port": "{{port}}",
							"path": [
								"api",
								"auth",
								"login-admin-user"
							]
						}
					},
					"response": []
				},
				{
					"name": "Logout",
					"request": {
						"auth": {
							"type": "bearer",
							"bearer": [
								{
									"key": "token",
									"value": "{{accessToken}}",
									"type": "string"
								}
							]
						},
						"method": "POST",
						"header": [],
						"url": {
							"raw": "{{host}}:{{port}}/api/auth/logout",
							"host": [
								"{{host}}"
							],
							"port": "{{port}}",
							"path": [
								"api",
								"auth",
								"logout"
							]
						}
					},
					"response": []
				}
			]
		},
		{
			"name": "employee",
			"item": [
				{
					"name": "Add employee",
					"request": {
						"auth": {
							"type": "bearer",
							"bearer": [
								{
									"key": "token",
									"value": "{{accessToken}}",
									"type": "string"
								}
							]
						},
						"method": "POST",
						"header": [],
						"body": {
							"mode": "raw",
							"raw": "{\n    \"username\": \"test1\",\n    \"firstName\": \"Test\",\n    \"lastName\": \"1\",\n    \"email\": \"test1@gmail.com\",\n    \"birthDate\": \"01-02-1997\",\n    \"basicSalary\": 2000000,\n    \"status\": 1,\n    \"group\": \"Marketing\",\n    \"description\": \"Hello my name is Test 1\"\n}",
							"options": {
								"raw": {
									"language": "json"
								}
							}
						},
						"url": {
							"raw": "{{host}}:{{port}}/api/employee/add",
							"host": [
								"{{host}}"
							],
							"port": "{{port}}",
							"path": [
								"api",
								"employee",
								"add"
							]
						}
					},
					"response": []
				},
				{
					"name": "Get employee list",
					"request": {
						"auth": {
							"type": "bearer",
							"bearer": [
								{
									"key": "token",
									"value": "{{accessToken}}",
									"type": "string"
								}
							]
						},
						"method": "GET",
						"header": [],
						"url": {
							"raw": "{{host}}:{{port}}/api/employee/list?limit=10&page=1",
							"host": [
								"{{host}}"
							],
							"port": "{{port}}",
							"path": [
								"api",
								"employee",
								"list"
							],
							"query": [
								{
									"key": "limit",
									"value": "10"
								},
								{
									"key": "page",
									"value": "1"
								},
								{
									"key": "username",
									"value": "sandy",
									"disabled": true
								},
								{
									"key": "firstName",
									"value": "",
									"disabled": true
								},
								{
									"key": "lastName",
									"value": "",
									"disabled": true
								},
								{
									"key": "email",
									"value": "sandydwi@gmail.com",
									"disabled": true
								},
								{
									"key": "birthDate",
									"value": "03-02-1997",
									"description": "2024-06-01, 2024-06-02, 2024-06-03, 2024-06-04, 2024-06-05",
									"disabled": true
								},
								{
									"key": "basicSalary",
									"value": "1000000",
									"description": "1000000, 2000000, 3000000, 4000000, 5000000",
									"disabled": true
								},
								{
									"key": "status",
									"value": "1",
									"description": "1 -> Active; 2 -> Inactive",
									"disabled": true
								},
								{
									"key": "group",
									"value": "",
									"description": "Marketing, Bussines Development, Software Developer, Community, Humman Resource",
									"disabled": true
								},
								{
									"key": "sortBy",
									"value": "salary-desc",
									"description": "salary-asc, salary-desc",
									"disabled": true
								}
							]
						}
					},
					"response": []
				},
				{
					"name": "Get employee detail",
					"request": {
						"auth": {
							"type": "bearer",
							"bearer": [
								{
									"key": "token",
									"value": "{{accessToken}}",
									"type": "string"
								}
							]
						},
						"method": "GET",
						"header": [],
						"url": {
							"raw": "{{host}}:{{port}}/api/employee/detail/:employee_id",
							"host": [
								"{{host}}"
							],
							"port": "{{port}}",
							"path": [
								"api",
								"employee",
								"detail",
								":employee_id"
							],
							"variable": [
								{
									"key": "employee_id",
									"value": "6661345a18c3bccf2af92249"
								}
							]
						}
					},
					"response": []
				},
				{
					"name": "Edit employee",
					"request": {
						"auth": {
							"type": "bearer",
							"bearer": [
								{
									"key": "token",
									"value": "{{accessToken}}",
									"type": "string"
								}
							]
						},
						"method": "PUT",
						"header": [],
						"body": {
							"mode": "raw",
							"raw": "{\n    \"username\": \"test5\",\n    \"firstName\": \"Test\",\n    \"lastName\": \"5\",\n    \"email\": \"test5@gmail.com\",\n    \"birthDate\": \"01-02-1997\",\n    \"basicSalary\": 2000000,\n    \"status\": 1,\n    \"group\": \"Marketing\",\n    \"description\": \"Hello my name is Sandy\"\n}",
							"options": {
								"raw": {
									"language": "json"
								}
							}
						},
						"url": {
							"raw": "{{host}}:{{port}}/api/employee/edit/:employee_id",
							"host": [
								"{{host}}"
							],
							"port": "{{port}}",
							"path": [
								"api",
								"employee",
								"edit",
								":employee_id"
							],
							"variable": [
								{
									"key": "employee_id",
									"value": "6661345a18c3bccf2af92249"
								}
							]
						}
					},
					"response": []
				},
				{
					"name": "Delete employee",
					"request": {
						"auth": {
							"type": "bearer",
							"bearer": [
								{
									"key": "token",
									"value": "{{accessToken}}",
									"type": "string"
								}
							]
						},
						"method": "DELETE",
						"header": [],
						"url": {
							"raw": "{{host}}:{{port}}/api/employee/delete/:employee_id",
							"host": [
								"{{host}}"
							],
							"port": "{{port}}",
							"path": [
								"api",
								"employee",
								"delete",
								":employee_id"
							],
							"variable": [
								{
									"key": "employee_id",
									"value": "6661415ffe035561ee8897e1"
								}
							]
						}
					},
					"response": []
				},
				{
					"name": "Inject 100 dummy employee data",
					"request": {
						"auth": {
							"type": "bearer",
							"bearer": [
								{
									"key": "token",
									"value": "{{accessToken}}",
									"type": "string"
								}
							]
						},
						"method": "POST",
						"header": [],
						"url": {
							"raw": "{{host}}:{{port}}/api/employee/inject-100-dummy-employee-data",
							"host": [
								"{{host}}"
							],
							"port": "{{port}}",
							"path": [
								"api",
								"employee",
								"inject-100-dummy-employee-data"
							]
						}
					},
					"response": []
				}
			]
		}
	]
}